448.611,147.183,1916.01,446.238,246.255,2321.57,415.910,341.472,2562.55;
447.267,148.143,1916.25,445.424,216.113,2325.07,413.193,342.224,2564.26;
446.559,146.691,1917.91,443.787,215.004,2326.52,414.096,341.567,2563.86;
428.710,135.853,1912.77,444.610,214.415,2325.73,413.182,342.247,2564.60;
446.559,148.608,1917.76,444.587,215.574,2326.65,414.900,343.593,2566.21;
430.043,134.887,1912.88,443.803,217.272,2325.61,415.877,342.780,2563.41;
447.267,147.185,1916.32,445.440,216.101,2324.38,415.877,341.537,2563.58;
430.738,135.377,1912.00,444.618,215.549,2325.28,414.997,342.151,2563.29;
447.921,148.613,1916.75,444.618,214.409,2325.38,414.106,340.302,2563.68;
429.394,133.463,1912.44,447.023,246.847,2322.39,415.877,341.537,2563.58;
448.585,148.129,1916.98,445.424,214.973,2325.18,414.117,339.037,2563.51;
429.394,133.463,1912.44,447.029,247.971,2321.92,415.007,339.644,2563.28;
449.265,145.737,1916.66,445.432,213.827,2324.94,415.910,340.228,2562.71;
447.939,145.748,1916.28,445.432,245.695,2321.78,415.007,339.644,2563.28;
447.939,145.748,1916.28,446.238,213.251,2324.83,415.019,337.136,2563.27;
430.750,132.510,1911.85,445.432,246.831,2321.66,415.910,340.228,2562.71;
431.410,134.897,1911.88,446.253,213.238,2324.15,413.282,339.565,2561.86;
455.963,147.637,1915.62,426.877,229.359,2326.25,415.030,340.843,2562.43;
455.948,147.628,1916.32,428.454,229.376,2327.33,415.019,339.622,2562.94;
461.959,148.087,1916.23,430.062,229.369,2327.38,413.248,340.873,2562.72;
475.298,148.041,1917.14,432.469,260.661,2324.32,409.708,339.646,2562.76;
499.331,147.031,1919.45,460.649,216.667,2326.87,381.592,325.838,2558.62;
528.108,146.551,1922.25,470.298,213.206,2326.29,400.091,342.591,2558.74;
558.327,148.067,1925.16,473.520,215.463,2325.08,394.867,341.247,2556.65;
569.124,149.067,1926.84,474.320,214.894,2325.31,393.127,341.213,2555.89;
575.208,147.648,1927.95,476.730,215.458,2325.11,412.447,357.461,2557.84;
605.842,160.839,1933.74,480.735,216.038,2325.96,411.602,355.522,2556.87;
608.630,149.255,1936.26,487.149,216.057,2327.38,409.880,356.674,2555.27;
651.959,173.409,1942.86,488.757,216.050,2327.04,408.990,356.070,2555.49;
629.238,160.068,1940.14,484.741,215.485,2327.25,414.216,356.213,2558.07;
611.366,162.810,1935.72,481.521,215.508,2328.26,394.799,340.115,2558.52;
563.110,149.504,1927.87,470.285,214.365,2327.21,399.123,340.876,2561.18;
520.737,147.026,1921.44,455.068,242.247,2322.00,399.123,339.633,2561.35;
472.646,147.106,1915.78,422.057,228.242,2326.21,401.771,339.009,2561.70;
408.815,135.080,1909.94,409.161,228.333,2326.79,406.143,339.706,2563.32;
353.570,147.985,1915.19,396.197,259.230,2325.45,408.735,306.784,2569.46;
310.603,149.958,1920.76,385.633,232.588,2330.04,418.259,371.374,2568.67;
277.583,150.469,1924.75,375.915,231.543,2330.71,420.989,339.458,2570.92;
227.896,162.540,1931.98,348.712,215.709,2327.58,402.216,355.362,2571.77;
209.994,161.456,1936.47,347.278,247.413,2334.54,402.241,355.314,2571.09;
204.814,163.022,1938.59,348.075,246.838,2334.83,426.353,338.106,2569.87;
205.520,162.517,1938.56,324.946,231.513,2330.52,403.123,353.452,2571.55;
206.274,162.991,1938.10,348.096,245.684,2334.60,400.425,352.901,2572.39;
216.380,163.750,1935.24,347.081,216.874,2327.71,392.745,351.775,2564.12;
271.345,150.089,1925.67,380.800,229.197,2330.15,406.095,336.060,2565.18;
338.643,150.078,1916.69,377.922,210.811,2324.83,401.671,336.693,2564.77;
408.017,137.428,1912.70,434.959,213.322,2326.28,396.396,336.657,2563.53;
475.286,148.029,1918.18,446.216,213.269,2325.87,392.045,338.429,2561.23;
507.353,147.984,1920.06,451.838,243.423,2322.85,403.480,352.776,2561.63;
532.145,149.427,1923.37,458.107,242.528,2332.04,398.245,351.423,2559.55;
556.387,148.509,1927.79,463.866,214.372,2326.78,395.624,351.999,2558.50;
569.275,149.018,1931.36,467.864,213.814,2328.10,392.977,320.321,2562.38;
597.216,159.295,1937.25,469.459,213.828,2329.15,369.338,336.944,2554.18;
604.774,160.797,1939.37,471.868,214.398,2329.30,392.127,351.948,2557.33;
607.550,161.782,1940.54,471.066,214.968,2329.07,367.589,336.934,2553.75;
610.255,161.808,1940.40,471.062,214.974,2329.41,368.447,337.581,2554.23;
602.053,160.774,1939.16,468.653,214.404,2329.26,395.571,352.092,2559.87;
565.240,148.029,1931.57,465.442,214.404,2328.87,406.963,352.876,2563.47;
526.796,147.484,1924.29,451.004,244.039,2324.32,391.083,336.686,2563.32;
483.292,148.002,1919.31,423.556,228.314,2329.70,398.994,337.361,2565.10;
423.354,135.877,1913.27,434.931,213.340,2327.31,384.117,321.636,2562.19;
372.314,147.758,1916.11,407.437,230.698,2329.60,384.994,321.018,2562.48;
337.222,148.164,1917.78,396.951,230.203,2329.75,413.171,337.292,2565.60;
302.967,149.574,1922.69,389.621,230.867,2331.26,423.589,370.110,2569.01;
286.399,150.788,1925.14,388.823,231.441,2330.99,424.502,370.665,2568.09;
280.169,150.405,1926.08,388.855,232.566,2330.19,425.385,371.295,2568.19;
254.297,163.923,1929.93,363.496,247.237,2334.48,429.813,370.695,2568.92;
243.824,163.649,1931.30,362.479,217.273,2326.69,409.339,386.408,2567.20;
241.156,163.712,1930.61,362.870,246.573,2331.23,388.249,368.682,2563.12;
241.156,164.682,1930.53,364.522,246.538,2330.64,430.794,368.560,2565.62;
288.066,149.832,1922.24,394.662,230.719,2326.66,425.527,369.669,2563.24;
329.442,148.321,1913.99,404.433,228.306,2324.19,387.024,320.662,2556.40;
369.970,148.808,1910.65,415.711,229.358,2323.47,385.273,321.895,2555.82;
424.259,135.507,1906.88,420.561,228.170,2322.71,401.909,338.772,2557.94;
475.361,148.100,1911.91,447.939,213.169,2320.39,395.783,336.847,2556.40;
504.665,148.054,1913.80,454.346,213.149,2320.52,413.359,355.538,2557.27;
533.394,148.533,1917.84,443.020,228.082,2323.70,408.980,356.094,2555.84;
566.328,149.089,1923.44,471.148,214.846,2322.18,409.903,352.911,2555.10;
575.797,149.122,1925.55,471.955,213.126,2321.83,427.458,369.229,2557.48;
575.158,148.627,1926.48,472.746,213.709,2322.65,426.578,371.077,2557.02;
592.807,162.196,1929.20,471.151,214.839,2321.83,406.382,355.381,2554.29;
559.578,148.110,1921.98,444.634,229.207,2323.28,411.613,355.498,2556.53;
523.358,148.046,1916.45,454.339,213.155,2320.87,396.634,338.757,2557.05;
476.677,148.082,1913.32,425.334,228.178,2324.25,385.214,323.214,2557.04;
410.850,136.514,1909.06,435.838,214.978,2323.21,411.523,338.309,2561.62;
342.819,148.124,1915.07,380.424,214.755,2322.69,428.118,371.714,2565.61;
299.824,149.177,1920.15,392.197,230.194,2327.81,410.541,355.272,2562.23;
249.579,163.543,1929.22,343.730,231.807,2328.14,393.584,338.783,2567.12;
232.357,163.873,1934.73,341.235,232.431,2329.12,393.584,340.029,2566.95;
228.893,164.437,1934.76,340.464,231.855,2328.61,393.584,338.783,2567.12;
228.938,164.438,1934.41,340.418,234.158,2329.07,394.464,338.167,2567.40;
231.700,163.404,1934.51,341.280,232.415,2328.44,389.100,338.260,2568.21;
246.746,162.628,1930.00,386.446,232.007,2329.96,429.001,372.345,2565.72;
295.587,152.119,1921.60,395.429,231.305,2327.50,394.558,354.181,2562.83;
344.236,148.117,1914.14,409.187,231.737,2325.76,384.295,323.889,2557.77;
411.508,136.027,1909.29,439.861,216.663,2322.64,403.603,338.892,2560.06;
475.331,149.985,1914.20,449.490,214.345,2322.73,396.581,340.083,2558.25;
521.379,151.370,1918.48,461.519,245.575,2319.69,409.788,354.384,2558.35;
557.623,149.519,1923.85,467.928,216.009,2323.06,423.900,370.532,2557.89;
594.216,161.238,1930.61,471.939,214.289,2323.10,395.824,355.364,2552.86;
608.557,162.792,1933.78,471.935,215.435,2323.34,393.209,353.464,2552.15;
609.942,161.837,1934.49,472.734,217.146,2323.36,392.333,354.075,2551.86;
609.942,161.837,1934.49,472.731,217.152,2323.71,393.209,354.701,2551.98;
609.961,163.766,1934.67,471.935,214.295,2323.45,394.099,352.828,2552.11;
599.018,161.751,1932.26,469.531,214.866,2323.19,423.010,369.929,2558.12;
567.793,159.635,1926.38,459.763,244.723,2329.08,411.467,357.047,2560.80;
499.332,147.060,1917.01,444.657,213.239,2323.76,397.367,340.862,2560.77;
444.635,150.086,1914.63,430.180,216.740,2324.45,382.438,324.017,2559.75;
374.627,135.822,1912.08,397.850,231.856,2327.37,407.034,340.312,2563.10;
313.572,148.985,1917.96,385.697,230.271,2328.89,390.079,354.909,2563.76;
257.612,162.923,1925.15,374.304,231.555,2330.62,422.794,339.387,2569.94;
217.928,162.750,1934.13,346.437,248.008,2334.95,384.290,373.150,2571.99;
177.526,150.907,1944.63,342.363,245.202,2335.50,364.983,356.688,2567.89;
174.734,176.466,1942.39,343.980,247.476,2335.37,386.114,371.816,2571.23;
195.980,164.186,1941.78,344.799,248.034,2335.18,363.172,355.501,2568.65;
196.131,162.236,1940.91,344.778,246.901,2335.65,363.190,357.969,2567.96;
177.685,176.389,1941.45,344.799,245.746,2335.43,363.172,356.747,2568.48;
196.080,163.212,1941.17,344.024,247.454,2334.68,363.224,356.676,2567.45;
196.080,163.212,1941.17,345.597,246.316,2335.59,361.412,356.735,2568.04;
195.422,163.720,1940.86,344.799,246.890,2335.31,361.395,355.514,2568.56;
178.396,151.393,1943.50,344.799,249.178,2335.06,403.148,354.652,2570.69;
203.401,165.007,1938.57,325.764,233.217,2330.24,400.438,356.616,2571.53;
225.091,164.544,1932.14,371.860,232.159,2330.95,386.504,354.977,2564.29;
293.002,152.179,1920.28,382.493,231.427,2328.28,377.622,355.054,2564.23;
352.989,150.405,1913.73,397.879,232.978,2326.57,389.326,340.406,2562.41;
440.632,150.106,1914.52,406.757,231.194,2326.24,400.767,356.000,2562.64;
475.972,150.439,1916.43,435.838,246.824,2320.05,366.562,338.983,2556.37;
520.748,150.853,1922.18,447.044,217.236,2324.31,364.898,338.867,2554.22;
562.518,150.918,1930.39,459.713,244.816,2332.18,363.202,338.793,2552.76;
593.802,161.686,1936.34,480.692,230.984,2330.05,360.563,339.420,2552.37;
616.431,174.925,1940.49,460.510,245.400,2332.65,360.582,338.160,2552.19;
617.098,174.448,1940.32,482.300,230.982,2330.06,360.617,339.356,2551.34;
602.738,163.197,1939.10,463.855,216.666,2327.26,362.346,340.625,2551.96;
606.144,163.710,1939.41,483.907,230.989,2330.41,360.598,340.616,2551.52;
606.162,161.773,1939.92,484.711,231.563,2330.53,360.635,339.334,2551.00;
601.352,161.254,1938.63,461.319,243.681,2332.67,360.598,340.616,2551.52;
565.906,149.482,1931.26,476.678,230.398,2329.20,364.881,338.888,2554.57;
532.834,149.897,1924.54,446.238,245.119,2321.69,397.249,357.212,2561.65;
491.982,148.478,1918.80,434.977,247.465,2322.20,384.907,342.284,2561.80;
448.585,151.002,1916.76,424.536,216.211,2325.19,392.799,342.981,2563.93;
381.952,137.176,1912.59,390.511,234.812,2329.01,400.754,341.106,2565.01;
315.475,151.344,1919.18,377.579,232.648,2329.64,382.868,357.627,2565.84;
270.073,151.091,1924.75,368.581,235.639,2331.47,416.524,343.895,2571.05;
221.442,165.103,1933.53,324.152,233.234,2330.12,400.413,359.157,2571.87;
203.401,165.982,1938.49,342.341,249.790,2335.36,404.912,358.404,2570.58;
196.939,164.666,1939.95,342.363,248.635,2335.14,403.148,358.388,2570.18;
197.597,136.739,1942.39,343.139,249.216,2335.65,404.030,357.773,2570.47;
204.156,165.479,1938.11,324.946,233.801,2330.29,420.096,341.344,2570.81;
260.232,154.155,1926.88,377.579,234.931,2329.41,382.018,358.194,2564.86;
319.089,151.800,1916.49,369.115,217.149,2323.27,376.711,356.960,2564.44;
362.437,151.257,1912.93,399.501,232.960,2326.30,389.368,339.097,2561.55;
439.299,153.938,1914.18,409.187,232.876,2325.65,404.298,358.490,2562.77;
476.649,150.924,1915.53,437.443,217.251,2323.05,397.314,357.093,2559.94;
521.398,150.394,1920.30,453.306,247.050,2329.75,393.895,356.897,2556.72;
565.141,150.954,1928.21,444.540,232.723,2327.07,365.996,340.448,2549.75;
599.817,163.192,1934.71,467.105,215.469,2324.66,387.857,356.063,2552.96;
602.549,163.213,1935.27,466.306,216.037,2324.42,365.140,339.803,2549.27;
594.342,162.188,1933.31,459.769,245.851,2328.61,363.342,339.858,2549.86;
529.406,150.423,1919.15,439.141,247.827,2316.22,365.893,340.578,2551.80;
474.701,149.540,1911.26,425.544,216.653,2318.45,397.393,358.190,2557.71;
436.780,150.179,1909.52,394.134,230.002,2320.32,383.389,340.682,2556.07;
415.471,151.273,1909.01,393.309,231.726,2320.63,382.514,340.057,2555.94;
397.752,137.656,1904.18,394.119,231.148,2320.55,382.528,341.275,2555.44;
397.770,137.662,1903.83,393.339,230.572,2320.05,385.171,341.889,2555.64;
396.442,137.674,1903.76,393.354,231.700,2319.59,385.171,340.649,2555.81;
413.496,149.863,1908.52,394.958,231.690,2319.66,384.279,342.526,2555.69;
414.154,150.333,1908.68,392.560,229.996,2319.56,386.061,343.733,2555.26;
395.769,137.201,1903.93,392.545,230.005,2319.90,386.923,340.661,2556.23;
414.154,150.333,1908.68,393.324,232.855,2320.17,386.937,343.118,2555.55;
395.769,136.246,1904.00,393.339,231.709,2319.94,386.047,344.995,2555.43;
414.842,149.856,1908.23,392.560,228.859,2319.67,386.937,340.639,2555.88;
413.496,150.817,1908.44,392.529,231.150,2320.13,385.156,341.912,2555.98;
